﻿{
  "$schema": "http://json-schema.org/draft-04/schema",
  "uri": "http://localhost:3580/customer?Id={{customerId}}",
  "method": "GET",
  "authorization": {
    "basicHttp": {
      "username": "username",
      "password": "password"
    }
  },
  "headers": [
    {
      "key": "Content-Type",
      "value": "application/json"
    }
  ]
}